<svg fill='#fff' xmlns='http://www.w3.org/2000/svg' viewBox='0 0 24 24'>
  <path fill-rule='evenodd' clip-rule='evenodd' d='M22.545 4.88V5.88H23.28C23.4126 5.88 23.52 5.98746 23.52 6.12001V10.64C23.52 10.7726 23.4126 10.88 23.28 10.88H17.76C17.6275 10.88 17.52 10.7726 17.52 10.64V6.12C17.52 5.98746 17.6275 5.88 17.76 5.88H18.52V4.88C18.52 3.76 19.47 2.88 20.52 2.88C21.57 2.88 22.545 3.76 22.545 4.88ZM19.52 5.88H21.52V4.88C21.52 4.30858 21.0534 3.88 20.52 3.88C19.9867 3.88 19.52 4.30858 19.52 4.88V5.88Z' />
  <path d='M15.84 5.84438L4.85 8.26441V18.1176C4.85 18.5496 5.1464 18.9251 5.5701 19.0315L9.3701 19.9726C9.4461 19.9905 9.524 19.9999 9.6 19.9999C9.89545 19.9999 10.1776 19.8635 10.36 19.6235L10.56 19.3593V16.2214L9.2181 17.9943L6.75 17.3825V15.2112L10.56 16.0509V13.92C10.56 12.3294 11.8494 11.04 13.44 11.04H15.84V5.84438Z' />
  <path d='M3.9 8.25994H2V15.2941H3.9V8.25994Z' />
  <path d='M13.44 12.96C12.9098 12.96 12.48 13.3898 12.48 13.92V20.2213C12.48 20.7515 12.9098 21.1813 13.44 21.1813H14.4C14.5326 21.1813 14.64 21.2887 14.64 21.4213V23.4597C14.64 23.6677 14.8866 23.7773 15.0409 23.6378L17.4859 21.4289C17.6623 21.2695 17.8917 21.1813 18.1294 21.1813H22.56C23.0902 21.1813 23.52 20.7515 23.52 20.2213V13.92C23.52 13.3898 23.0902 12.96 22.56 12.96H13.44Z' />
</svg>
